wave.vcd
$date
	Mon Mar 14 20:53:45 2022
$end
$version
	Icarus Verilog
$end
$timescale
	1s
$end
$scope module testbench $end
$var wire 32 ! writedata [31:0] $end
$var wire 1 " memwrite $end
$var wire 32 # dataadr [31:0] $end
$var reg 1 $ clk $end
$var reg 1 % reset $end
$scope module dut $end
$var wire 1 $ clk $end
$var wire 1 % reset $end
$var wire 32 & writedata [31:0] $end
$var wire 32 ' readdata [31:0] $end
$var wire 32 ( pc [31:0] $end
$var wire 1 " memwrite $end
$var wire 32 ) instr [31:0] $end
$var wire 32 * dataadr [31:0] $end
$scope module dmem $end
$var wire 1 $ clk $end
$var wire 32 + rd [31:0] $end
$var wire 1 " we $end
$var wire 32 , wd [31:0] $end
$var wire 32 - a [31:0] $end
$upscope $end
$scope module imem $end
$var wire 6 . a [5:0] $end
$var wire 32 / rd [31:0] $end
$upscope $end
$scope module mips $end
$var wire 1 $ clk $end
$var wire 32 0 instr [31:0] $end
$var wire 32 1 readdata [31:0] $end
$var wire 1 % reset $end
$var wire 1 2 zero $end
$var wire 32 3 writedataM [31:0] $end
$var wire 1 4 regwriteW $end
$var wire 1 5 regwriteM $end
$var wire 1 6 regwriteE $end
$var wire 1 7 regdstE $end
$var wire 1 8 pcsrc $end
$var wire 32 9 pc [31:0] $end
$var wire 6 : op [5:0] $end
$var wire 1 " memwriteM $end
$var wire 1 ; memtoregW $end
$var wire 1 < memtoregM $end
$var wire 1 = memtoregE $end
$var wire 1 > jump $end
$var wire 6 ? funct [5:0] $end
$var wire 1 @ flushE $end
$var wire 1 A branch $end
$var wire 1 B alusrc $end
$var wire 32 C aluout [31:0] $end
$var wire 3 D alucontrol [2:0] $end
$scope module c $end
$var wire 1 $ clk $end
$var wire 1 8 pcsrc $end
$var wire 1 % reset $end
$var wire 1 2 zero $end
$var wire 1 4 regwriteW $end
$var wire 1 5 regwriteM $end
$var wire 1 6 regwriteE $end
$var wire 1 E regwriteD $end
$var wire 1 7 regdstE $end
$var wire 1 F regdstD $end
$var wire 6 G op [5:0] $end
$var wire 1 " memwriteM $end
$var wire 1 H memwriteE $end
$var wire 1 I memwriteD $end
$var wire 1 ; memtoregW $end
$var wire 1 < memtoregM $end
$var wire 1 = memtoregE $end
$var wire 1 J memtoregD $end
$var wire 1 > jump $end
$var wire 6 K funct [5:0] $end
$var wire 1 @ flushE $end
$var wire 1 A branch $end
$var wire 1 L alusrcD $end
$var wire 1 B alusrc $end
$var wire 2 M aluop [1:0] $end
$var wire 3 N alucontrolD [2:0] $end
$var wire 3 O alucontrol [2:0] $end
$scope module ad $end
$var wire 6 P funct [5:0] $end
$var wire 2 Q aluop [1:0] $end
$var reg 3 R alucontrol [2:0] $end
$upscope $end
$scope module dereg $end
$var wire 1 $ clk $end
$var wire 8 S d [7:0] $end
$var wire 1 % reset $end
$var wire 1 @ flush $end
$var reg 8 T q [7:0] $end
$upscope $end
$scope module emreg $end
$var wire 1 $ clk $end
$var wire 3 U d [2:0] $end
$var wire 1 % reset $end
$var reg 3 V q [2:0] $end
$upscope $end
$scope module mWreg $end
$var wire 1 $ clk $end
$var wire 2 W d [1:0] $end
$var wire 1 % reset $end
$var reg 2 X q [1:0] $end
$upscope $end
$scope module md $end
$var wire 1 E regwrite $end
$var wire 1 F regdst $end
$var wire 6 Y op [5:0] $end
$var wire 1 I memwrite $end
$var wire 1 J memtoreg $end
$var wire 1 > jump $end
$var wire 1 A branch $end
$var wire 1 L alusrc $end
$var wire 2 Z aluop [1:0] $end
$var reg 10 [ controls [9:0] $end
$upscope $end
$upscope $end
$scope module dp $end
$var wire 3 \ alucontrol [2:0] $end
$var wire 1 B alusrc $end
$var wire 1 A branch $end
$var wire 1 $ clk $end
$var wire 1 ] flush $end
$var wire 32 ^ instr [31:0] $end
$var wire 1 > jump $end
$var wire 1 = memtoregE $end
$var wire 1 < memtoregM $end
$var wire 1 ; memtoregW $end
$var wire 1 8 pcsrc $end
$var wire 32 _ readdataM [31:0] $end
$var wire 1 7 regdstE $end
$var wire 1 6 regwriteE $end
$var wire 1 5 regwriteM $end
$var wire 1 4 regwriteW $end
$var wire 1 % reset $end
$var wire 1 2 zero $end
$var wire 5 ` writeregW [4:0] $end
$var wire 5 a writeregM [4:0] $end
$var wire 5 b writeregE [4:0] $end
$var wire 32 c writedataM [31:0] $end
$var wire 32 d writedataE [31:0] $end
$var wire 1 e stallF $end
$var wire 1 f stallD $end
$var wire 32 g srcbE [31:0] $end
$var wire 32 h srcaE [31:0] $end
$var wire 32 i srcBD [31:0] $end
$var wire 32 j srcAD [31:0] $end
$var wire 32 k signimmsh [31:0] $end
$var wire 32 l signimmE [31:0] $end
$var wire 32 m signimmD [31:0] $end
$var wire 5 n rtE [4:0] $end
$var wire 5 o rtD [4:0] $end
$var wire 5 p rsE [4:0] $end
$var wire 5 q rsD [4:0] $end
$var wire 32 r result [31:0] $end
$var wire 32 s readdataW [31:0] $end
$var wire 5 t rdE [4:0] $end
$var wire 5 u rdD [4:0] $end
$var wire 32 v rd2 [31:0] $end
$var wire 32 w rd1 [31:0] $end
$var wire 32 x pcplus4F [31:0] $end
$var wire 32 y pcplus4D [31:0] $end
$var wire 32 z pcnextbr [31:0] $end
$var wire 32 { pcnext [31:0] $end
$var wire 32 | pcbranch [31:0] $end
$var wire 32 } pc [31:0] $end
$var wire 6 ~ op [5:0] $end
$var wire 32 !" instrD [31:0] $end
$var wire 6 "" funct [5:0] $end
$var wire 2 #" forwardBE [1:0] $end
$var wire 1 $" forwardBD $end
$var wire 2 %" forwardAE [1:0] $end
$var wire 1 &" forwardAD $end
$var wire 1 @ flushE $end
$var wire 32 '" aluoutW [31:0] $end
$var wire 32 (" aluoutE [31:0] $end
$var wire 32 )" aluout [31:0] $end
$scope module comp $end
$var wire 1 2 eq $end
$var wire 32 *" b [31:0] $end
$var wire 32 +" a [31:0] $end
$upscope $end
$scope module de $end
$var wire 1 $ clk $end
$var wire 5 ," rdD [4:0] $end
$var wire 1 % reset $end
$var wire 5 -" rsD [4:0] $end
$var wire 5 ." rtD [4:0] $end
$var wire 32 /" signE [31:0] $end
$var wire 32 0" signD [31:0] $end
$var wire 5 1" rtE [4:0] $end
$var wire 5 2" rsE [4:0] $end
$var wire 32 3" readdata2E [31:0] $end
$var wire 32 4" readdata2D [31:0] $end
$var wire 32 5" readdata1E [31:0] $end
$var wire 32 6" readdata1D [31:0] $end
$var wire 5 7" rdE [4:0] $end
$var wire 1 @ flush $end
$scope module f1 $end
$var wire 1 $ clk $end
$var wire 1 % reset $end
$var wire 1 @ flush $end
$var wire 32 8" d [31:0] $end
$var reg 32 9" q [31:0] $end
$upscope $end
$scope module f2 $end
$var wire 1 $ clk $end
$var wire 1 % reset $end
$var wire 1 @ flush $end
$var wire 32 :" d [31:0] $end
$var reg 32 ;" q [31:0] $end
$upscope $end
$scope module frd $end
$var wire 1 $ clk $end
$var wire 5 <" d [4:0] $end
$var wire 1 % reset $end
$var wire 1 @ flush $end
$var reg 5 =" q [4:0] $end
$upscope $end
$scope module frs $end
$var wire 1 $ clk $end
$var wire 5 >" d [4:0] $end
$var wire 1 % reset $end
$var wire 1 @ flush $end
$var reg 5 ?" q [4:0] $end
$upscope $end
$scope module frt $end
$var wire 1 $ clk $end
$var wire 5 @" d [4:0] $end
$var wire 1 % reset $end
$var wire 1 @ flush $end
$var reg 5 A" q [4:0] $end
$upscope $end
$scope module fsign $end
$var wire 1 $ clk $end
$var wire 1 % reset $end
$var wire 1 @ flush $end
$var wire 32 B" d [31:0] $end
$var reg 32 C" q [31:0] $end
$upscope $end
$upscope $end
$scope module em $end
$var wire 1 $ clk $end
$var wire 1 % reset $end
$var wire 5 D" writeregE [4:0] $end
$var wire 32 E" writedataE [31:0] $end
$var wire 32 F" aluoutE [31:0] $end
$var reg 32 G" aluoutM [31:0] $end
$var reg 32 H" writedataM [31:0] $end
$var reg 5 I" writeregM [4:0] $end
$upscope $end
$scope module ex $end
$var wire 3 J" alucontrolE [2:0] $end
$var wire 32 K" aluoutM [31:0] $end
$var wire 1 B alusrcE $end
$var wire 32 L" rd1E [31:0] $end
$var wire 32 M" rd2E [31:0] $end
$var wire 5 N" rdE [4:0] $end
$var wire 1 7 regdst $end
$var wire 5 O" rtE [4:0] $end
$var wire 32 P" signE [31:0] $end
$var wire 32 Q" writedataE [31:0] $end
$var wire 5 R" writeregE [4:0] $end
$var wire 32 S" srcbE [31:0] $end
$var wire 32 T" srcaE [31:0] $end
$var wire 32 U" resultW [31:0] $end
$var wire 32 V" mux3Bresult [31:0] $end
$var wire 2 W" forwardbE [1:0] $end
$var wire 2 X" forwardaE [1:0] $end
$var wire 32 Y" aluoutE [31:0] $end
$scope module alu $end
$var wire 3 Z" alucontrol [2:0] $end
$var wire 32 [" s [31:0] $end
$var wire 32 \" bb [31:0] $end
$var wire 32 ]" b [31:0] $end
$var wire 32 ^" a [31:0] $end
$var reg 32 _" aluout [31:0] $end
$upscope $end
$scope module mux2B $end
$var wire 32 `" d1 [31:0] $end
$var wire 1 B s $end
$var wire 32 a" y [31:0] $end
$var wire 32 b" d0 [31:0] $end
$upscope $end
$scope module mux2R $end
$var wire 5 c" d0 [4:0] $end
$var wire 5 d" d1 [4:0] $end
$var wire 1 7 s $end
$var wire 5 e" y [4:0] $end
$upscope $end
$scope module mux3A $end
$var wire 32 f" alusrcM [31:0] $end
$var wire 32 g" rd [31:0] $end
$var wire 32 h" resultW [31:0] $end
$var wire 32 i" muxresult [31:0] $end
$var wire 2 j" forward [1:0] $end
$upscope $end
$scope module mux3B $end
$var wire 32 k" alusrcM [31:0] $end
$var wire 32 l" rd [31:0] $end
$var wire 32 m" resultW [31:0] $end
$var wire 32 n" muxresult [31:0] $end
$var wire 2 o" forward [1:0] $end
$upscope $end
$upscope $end
$scope module fdi $end
$var wire 1 $ clk $end
$var wire 32 p" d [31:0] $end
$var wire 1 q" en $end
$var wire 1 ] flush $end
$var wire 1 % reset $end
$var reg 32 r" q [31:0] $end
$upscope $end
$scope module fdp $end
$var wire 1 $ clk $end
$var wire 1 s" en $end
$var wire 1 % reset $end
$var wire 32 t" d [31:0] $end
$var reg 32 u" q [31:0] $end
$upscope $end
$scope module ha $end
$var wire 1 A branchD $end
$var wire 1 v" branchstallD $end
$var wire 1 @ flushE $end
$var wire 1 w" lwstallD $end
$var wire 1 = memtoregE $end
$var wire 1 < memtoregM $end
$var wire 1 6 regwriteE $end
$var wire 1 5 regwriteM $end
$var wire 1 4 regwriteW $end
$var wire 5 x" rsD [4:0] $end
$var wire 5 y" rsE [4:0] $end
$var wire 5 z" rtD [4:0] $end
$var wire 5 {" rtE [4:0] $end
$var wire 1 f stallD $end
$var wire 1 e stallF $end
$var wire 5 |" writeregE [4:0] $end
$var wire 5 }" writeregM [4:0] $end
$var wire 5 ~" writeregW [4:0] $end
$var wire 2 !# forwardBE [1:0] $end
$var wire 1 $" forwardBD $end
$var wire 2 "# forwardAE [1:0] $end
$var wire 1 &" forwardAD $end
$scope module ex $end
$var wire 1 5 regwriteM $end
$var wire 1 4 regwriteW $end
$var wire 5 ## rsE [4:0] $end
$var wire 5 $# rtE [4:0] $end
$var wire 5 %# writeregM [4:0] $end
$var wire 5 &# writeregW [4:0] $end
$var reg 2 '# forwardAE [1:0] $end
$var reg 2 (# forwardBE [1:0] $end
$upscope $end
$scope module fud $end
$var wire 1 &" forwardAD $end
$var wire 1 $" forwardBD $end
$var wire 1 5 regwriteM $end
$var wire 5 )# rsD [4:0] $end
$var wire 5 *# rtD [4:0] $end
$var wire 5 +# writeregM [4:0] $end
$upscope $end
$upscope $end
$scope module immsh $end
$var wire 32 ,# y [31:0] $end
$var wire 32 -# a [31:0] $end
$upscope $end
$scope module muxAD $end
$var wire 32 .# d1 [31:0] $end
$var wire 1 &" s $end
$var wire 32 /# y [31:0] $end
$var wire 32 0# d0 [31:0] $end
$upscope $end
$scope module muxBD $end
$var wire 32 1# d1 [31:0] $end
$var wire 1 $" s $end
$var wire 32 2# y [31:0] $end
$var wire 32 3# d0 [31:0] $end
$upscope $end
$scope module mw $end
$var wire 32 4# aluoutM [31:0] $end
$var wire 1 $ clk $end
$var wire 32 5# readdataM [31:0] $end
$var wire 1 % reset $end
$var wire 5 6# writeregM [4:0] $end
$var reg 32 7# aluoutW [31:0] $end
$var reg 32 8# readdataW [31:0] $end
$var reg 5 9# writeregW [4:0] $end
$upscope $end
$scope module pcadd2 $end
$var wire 32 :# a [31:0] $end
$var wire 32 ;# b [31:0] $end
$var wire 32 <# y [31:0] $end
$upscope $end
$scope module pcaddl $end
$var wire 32 =# b [31:0] $end
$var wire 32 ># y [31:0] $end
$var wire 32 ?# a [31:0] $end
$upscope $end
$scope module pcbrmux $end
$var wire 32 @# d0 [31:0] $end
$var wire 32 A# d1 [31:0] $end
$var wire 1 8 s $end
$var wire 32 B# y [31:0] $end
$upscope $end
$scope module pcmux $end
$var wire 32 C# d0 [31:0] $end
$var wire 32 D# d1 [31:0] $end
$var wire 1 > s $end
$var wire 32 E# y [31:0] $end
$upscope $end
$scope module pcreg $end
$var wire 1 $ clk $end
$var wire 32 F# d [31:0] $end
$var wire 1 G# en $end
$var wire 1 % reset $end
$var reg 32 H# q [31:0] $end
$upscope $end
$scope module rf $end
$var wire 1 $ clk $end
$var wire 5 I# ra1 [4:0] $end
$var wire 5 J# ra2 [4:0] $end
$var wire 32 K# test1 [31:0] $end
$var wire 5 L# wa3 [4:0] $end
$var wire 1 4 we3 $end
$var wire 32 M# wd3 [31:0] $end
$var wire 32 N# rd2 [31:0] $end
$var wire 32 O# rd1 [31:0] $end
$var integer 32 P# i [31:0] $end
$upscope $end
$scope module se $end
$var wire 16 Q# a [15:0] $end
$var wire 32 R# y [31:0] $end
$upscope $end
$scope module wbmux $end
$var wire 32 S# d0 [31:0] $end
$var wire 32 T# d1 [31:0] $end
$var wire 1 ; s $end
$var wire 32 U# y [31:0] $end
$upscope $end
$upscope $end
$upscope $end
$upscope $end
$upscope $end
$enddefinitions $end
#0
$dumpvars
bx U#
bx T#
bx S#
bx R#
bx Q#
b11111 P#
bx O#
bx N#
bx M#
bx L#
b0 K#
bx J#
bx I#
bx H#
xG#
bx F#
bx E#
bx00 D#
bx C#
bx B#
bx A#
bx @#
bx ?#
bx >#
b100 =#
bx <#
bx00 ;#
bx :#
bx 9#
bx 8#
bx 7#
bx 6#
bx 5#
bx 4#
bx 3#
bx 2#
bx 1#
bx 0#
bx /#
bx .#
bx -#
bx00 ,#
bx +#
bx *#
bx )#
b0 (#
b0 '#
bx &#
bx %#
bx $#
bx ##
b0 "#
b0 !#
bx ~"
bx }"
bx |"
bx {"
bx z"
bx y"
bx x"
xw"
xv"
bx u"
bx t"
xs"
bx r"
xq"
bx p"
b0 o"
bx n"
bx m"
bx l"
bx k"
b0 j"
bx i"
bx h"
bx g"
bx f"
bx e"
bx d"
bx c"
bx b"
bx a"
bx `"
bx _"
bx ^"
bx ]"
bx \"
bx ["
bx Z"
bx Y"
b0 X"
b0 W"
bx V"
bx U"
bx T"
bx S"
bx R"
bx Q"
bx P"
bx O"
bx N"
bx M"
bx L"
bx K"
bx J"
bx I"
bx H"
bx G"
bx F"
bx E"
bx D"
bx C"
bx B"
bx A"
bx @"
bx ?"
bx >"
bx ="
bx <"
bx ;"
bx :"
bx 9"
bx 8"
bx 7"
bx 6"
bx 5"
bx 4"
bx 3"
bx 2"
bx 1"
bx 0"
bx /"
bx ."
bx -"
bx ,"
bx +"
bx *"
bx )"
bx ("
bx '"
0&"
b0 %"
0$"
b0 #"
bx ""
bx !"
bx ~
bx }
bx |
bx {
bx z
bx y
bx x
bx w
bx v
bx u
bx t
bx s
bx r
bx q
bx p
bx o
bx n
bx m
bx l
bx00 k
bx j
bx i
bx h
bx g
xf
xe
bx d
bx c
bx b
bx a
bx `
bx _
bx ^
x]
bx \
bx [
bx Z
bx Y
b0 X
b0 W
b0 V
bx U
bx T
bx S
bx R
bx Q
bx P
bx O
bx N
bx M
xL
bx K
xJ
xI
xH
bx G
xF
xE
bx D
bx C
xB
xA
x@
bx ?
x>
x=
0<
0;
bx :
bx 9
x8
x7
x6
05
04
bx 3
x2
bx 1
bx 0
bx /
bx .
bx -
bx ,
bx +
bx *
bx )
bx (
bx '
bx &
1%
1$
bx #
0"
bx !
$end
#1
0]
08
b10 M
b10 Q
b10 Z
0>
0J
0I
0A
0L
1F
b101xxx S
1E
b0 ("
b0 F"
b0 Y"
b0 _"
b110000010 [
b100 {
b100 E#
b100 F#
b100 z
b100 B#
b100 C#
b0 ["
b0 \"
b0 |
b0 <#
b0 A#
12
b0 i
b0 *"
b0 4"
b0 :"
b0 2#
b0 j
b0 +"
b0 6"
b0 8"
b0 /#
b0 S"
b0 ]"
b0 a"
b0 k
b0 ,#
b0 ;#
b0 v
b0 3#
b0 N#
b0 w
b0 0#
b0 O#
b0 T"
b0 ^"
b0 i"
b0 d
b0 E"
b0 Q"
b0 V"
b0 b"
b0 n"
b0 D
b0 O
b0 \
b0 J"
b0 Z"
07
0B
06
0H
b0 U
0=
b100000000000100000000000000101 )
b100000000000100000000000000101 /
b100000000000100000000000000101 0
b100000000000100000000000000101 ^
b100000000000100000000000000101 p"
b0 .
b0 m
b0 0"
b0 B"
b0 -#
b0 R#
b0 Q#
b0 D#
b0 u
b0 ,"
b0 <"
b0 o
b0 ."
b0 @"
b0 z"
b0 *#
b0 J#
b0 q
b0 -"
b0 >"
b0 x"
b0 )#
b0 I#
b0 ?
b0 K
b0 P
b0 ""
b0 :
b0 G
b0 Y
b0 ~
b0 b
b0 D"
b0 R"
b0 e"
b0 |"
b0 T
b100 x
b100 t"
b100 >#
b100 @#
b0 (
b0 9
b0 }
b0 ?#
b0 H#
b0 y
b0 u"
b0 :#
b0 !"
b0 r"
b0 h
b0 5"
b0 9"
b0 L"
b0 g"
b0 g
b0 3"
b0 ;"
b0 M"
b0 l"
b0 l
b0 /"
b0 C"
b0 P"
b0 `"
b0 p
b0 2"
b0 ?"
b0 y"
b0 ##
b0 n
b0 1"
b0 A"
b0 O"
b0 c"
b0 {"
b0 $#
b0 t
b0 7"
b0 ="
b0 N"
b0 d"
#2
0v"
0w"
#3
1q"
1s"
0f
#4
1G#
0e
#5
0$
0@
#10
b100000000000100000000000000101 '
b100000000000100000000000000101 +
b100000000000100000000000000101 1
b100000000000100000000000000101 _
b100000000000100000000000000101 5#
b0 !
b0 &
b0 ,
b0 3
b0 c
b0 H"
b0 #
b0 *
b0 -
b0 C
b0 )"
b0 G"
b0 K"
b0 f"
b0 k"
b0 .#
b0 1#
b0 4#
b0 a
b0 I"
b0 }"
b0 %#
b0 +#
b0 6#
1$
#15
0$
#20
b0 r
b0 U"
b0 h"
b0 m"
b0 M#
b0 U#
b0 `
b0 ~"
b0 &#
b0 9#
b0 L#
b100000000000100000000000000101 s
b100000000000100000000000000101 8#
b100000000000100000000000000101 T#
b0 '"
b0 7#
b0 S#
1$
#22
0%
#25
0$
#30
1$
#31
b10 N
b10 R
b0 M
b0 Q
b0 Z
1L
b110010 S
0F
b101000000 [
bx \"
b10100 k
b10100 ,#
b10100 ;#
b1000 {
b1000 E#
b1000 F#
bx ["
b101 m
b101 0"
b101 B"
b101 -#
b101 R#
b101 Q#
b10000000000000010100 D#
b10 o
b10 ."
b10 @"
b10 z"
b10 *#
b10 J#
b101 ?
b101 K
b101 P
b101 ""
b1000 :
b1000 G
b1000 Y
b1000 ~
b1000 z
b1000 B#
b1000 C#
b100000000000110000000000001100 )
b100000000000110000000000001100 /
b100000000000110000000000001100 0
b100000000000110000000000001100 ^
b100000000000110000000000001100 p"
b1 .
bx D
bx O
bx \
bx J"
bx Z"
17
b1 U
16
b100000000000100000000000000101 !"
b100000000000100000000000000101 r"
b11000 |
b11000 <#
b11000 A#
b100 y
b100 u"
b100 :#
b1000 x
b1000 t"
b1000 >#
b1000 @#
b100 (
b100 9
b100 }
b100 ?#
b100 H#
b101xxx T
#35
0$
#40
b1 W
15
b1 V
1$
#41
b101 ("
b101 F"
b101 Y"
b101 _"
b101 ["
b101 \"
b10 b
b10 D"
b10 R"
b10 e"
b10 |"
b101 S"
b101 ]"
b101 a"
b1100 {
b1100 E#
b1100 F#
b110000 k
b110000 ,#
b110000 ;#
b10 D
b10 O
b10 \
b10 J"
b10 Z"
07
1B
b1100 z
b1100 B#
b1100 C#
b100000011001111111111111110111 )
b100000011001111111111111110111 /
b100000011001111111111111110111 0
b100000011001111111111111110111 ^
b100000011001111111111111110111 p"
b10 .
b1100 m
b1100 0"
b1100 B"
b1100 -#
b1100 R#
b1100 Q#
b11000000000000110000 D#
b11 o
b11 ."
b11 @"
b11 z"
b11 *#
b11 J#
b1100 ?
b1100 K
b1100 P
b1100 ""
b110010 T
b1100 x
b1100 t"
b1100 >#
b1100 @#
b1000 (
b1000 9
b1000 }
b1000 ?#
b1000 H#
b111000 |
b111000 <#
b111000 A#
b1000 y
b1000 u"
b1000 :#
b100000000000110000000000001100 !"
b100000000000110000000000001100 r"
b101 l
b101 /"
b101 C"
b101 P"
b101 `"
b10 n
b10 1"
b10 A"
b10 O"
b10 c"
b10 {"
b10 $#
#45
0$
#50
b101 d
b101 E"
b101 Q"
b101 V"
b101 b"
b101 n"
b100000000000110000000000001100 '
b100000000000110000000000001100 +
b100000000000110000000000001100 1
b100000000000110000000000001100 _
b100000000000110000000000001100 5#
b10 #"
b10 W"
b10 o"
b10 !#
b10 (#
14
b101 #
b101 *
b101 -
b101 C
b101 )"
b101 G"
b101 K"
b101 f"
b101 k"
b101 .#
b101 1#
b101 4#
b10 a
b10 I"
b10 }"
b10 %#
b10 +#
b10 6#
b1 X
1$
#51
b1100 ("
b1100 F"
b1100 Y"
b1100 _"
b0 d
b0 E"
b0 Q"
b0 V"
b0 b"
b0 n"
b1100 ["
b1100 \"
b11111111111111111111111111011100 k
b11111111111111111111111111011100 ,#
b11111111111111111111111111011100 ;#
b10000 {
b10000 E#
b10000 F#
b11 b
b11 D"
b11 R"
b11 e"
b11 |"
b0 #"
b0 W"
b0 o"
b0 !#
b0 (#
b1100 S"
b1100 ]"
b1100 a"
b11111111111111111111111111110111 m
b11111111111111111111111111110111 0"
b11111111111111111111111111110111 B"
b11111111111111111111111111110111 -#
b11111111111111111111111111110111 R#
b1111111111110111 Q#
b1100111111111111111011100 D#
b11111 u
b11111 ,"
b11111 <"
b111 o
b111 ."
b111 @"
b111 z"
b111 *#
b111 J#
b11 q
b11 -"
b11 >"
b11 x"
b11 )#
b11 I#
b110111 ?
b110111 K
b110111 P
b110111 ""
b10000 z
b10000 B#
b10000 C#
b111000100010000000100101 )
b111000100010000000100101 /
b111000100010000000100101 0
b111000100010000000100101 ^
b111000100010000000100101 p"
b11 .
b11 n
b11 1"
b11 A"
b11 O"
b11 c"
b11 {"
b11 $#
b1100 l
b1100 /"
b1100 C"
b1100 P"
b1100 `"
b100000011001111111111111110111 !"
b100000011001111111111111110111 r"
b11111111111111111111111111101000 |
b11111111111111111111111111101000 <#
b11111111111111111111111111101000 A#
b1100 y
b1100 u"
b1100 :#
b10000 x
b10000 t"
b10000 >#
b10000 @#
b1100 (
b1100 9
b1100 }
b1100 ?#
b1100 H#
#55
0$
#60
b101 K#
02
b1100 j
b1100 +"
b1100 6"
b1100 8"
b1100 /#
1&"
b1100 d
b1100 E"
b1100 Q"
b1100 V"
b1100 b"
b1100 n"
b111000100010000000100101 '
b111000100010000000100101 +
b111000100010000000100101 1
b111000100010000000100101 _
b111000100010000000100101 5#
b10 #"
b10 W"
b10 o"
b10 !#
b10 (#
b101 r
b101 U"
b101 h"
b101 m"
b101 M#
b101 U#
b1100 #
b1100 *
b1100 -
b1100 C
b1100 )"
b1100 G"
b1100 K"
b1100 f"
b1100 k"
b1100 .#
b1100 1#
b1100 4#
b11 a
b11 I"
b11 }"
b11 %#
b11 +#
b11 6#
b10 `
b10 ~"
b10 &#
b10 9#
b10 L#
b100000000000110000000000001100 s
b100000000000110000000000001100 8#
b100000000000110000000000001100 T#
b101 '"
b101 7#
b101 S#
1$
#61
b1 N
b1 R
b10 M
b10 Q
b10 Z
0L
b101001 S
1F
b11 ("
b11 F"
b11 Y"
b11 _"
b110000010 [
b0 j
b0 +"
b0 6"
b0 8"
b0 /#
b101 i
b101 *"
b101 4"
b101 :"
b101 2#
0&"
b10100 {
b10100 E#
b10100 F#
b1000000010010100 k
b1000000010010100 ,#
b1000000010010100 ;#
b101 v
b101 3#
b101 N#
b11111111111111111111111111110111 \"
b11 ["
b1100 T"
b1100 ^"
b1100 i"
b0 d
b0 E"
b0 Q"
b0 V"
b0 b"
b0 n"
b10100 z
b10100 B#
b10100 C#
b11001000010100000100100 )
b11001000010100000100100 /
b11001000010100000100100 0
b11001000010100000100100 ^
b11001000010100000100100 p"
b100 .
b10000000100101 m
b10000000100101 0"
b10000000100101 B"
b10000000100101 -#
b10000000100101 R#
b10000000100101 Q#
b11100010001000000010010100 D#
b100 u
b100 ,"
b100 <"
b10 o
b10 ."
b10 @"
b10 z"
b10 *#
b10 J#
b111 q
b111 -"
b111 >"
b111 x"
b111 )#
b111 I#
b100101 ?
b100101 K
b100101 P
b100101 ""
b0 :
b0 G
b0 Y
b0 ~
b11111111111111111111111111110111 S"
b11111111111111111111111111110111 ]"
b11111111111111111111111111110111 a"
b111 b
b111 D"
b111 R"
b111 e"
b111 |"
b10 %"
b10 X"
b10 j"
b10 "#
b10 '#
b0 #"
b0 W"
b0 o"
b0 !#
b0 (#
b10100 x
b10100 t"
b10100 >#
b10100 @#
b10000 (
b10000 9
b10000 }
b10000 ?#
b10000 H#
b1000000010100100 |
b1000000010100100 <#
b1000000010100100 A#
b10000 y
b10000 u"
b10000 :#
b111000100010000000100101 !"
b111000100010000000100101 r"
b11111111111111111111111111110111 l
b11111111111111111111111111110111 /"
b11111111111111111111111111110111 C"
b11111111111111111111111111110111 P"
b11111111111111111111111111110111 `"
b11 p
b11 2"
b11 ?"
b11 y"
b11 ##
b111 n
b111 1"
b111 A"
b111 O"
b111 c"
b111 {"
b111 $#
b11111 t
b11111 7"
b11111 ="
b11111 N"
b11111 d"
#65
0$
#70
b11 ("
b11 F"
b11 Y"
b11 _"
b11 j
b11 +"
b11 6"
b11 8"
b11 /#
b11 d
b11 E"
b11 Q"
b11 V"
b11 b"
b11 n"
1&"
b1100 r
b1100 U"
b1100 h"
b1100 m"
b1100 M#
b1100 U#
b11 ["
b1100 T"
b1100 ^"
b1100 i"
b100000000000100000000000000101 '
b100000000000100000000000000101 +
b100000000000100000000000000101 1
b100000000000100000000000000101 _
b100000000000100000000000000101 5#
b10 #"
b10 W"
b10 o"
b10 !#
b10 (#
b1 %"
b1 X"
b1 j"
b1 "#
b1 '#
b11 `
b11 ~"
b11 &#
b11 9#
b11 L#
b111000100010000000100101 s
b111000100010000000100101 8#
b111000100010000000100101 T#
b1100 '"
b1100 7#
b1100 S#
b11 #
b11 *
b11 -
b11 C
b11 )"
b11 G"
b11 K"
b11 f"
b11 k"
b11 .#
b11 1#
b11 4#
b111 a
b111 I"
b111 }"
b111 %#
b111 +#
b111 6#
1$
#71
b101000 S
b0 N
b0 R
b111 ("
b111 F"
b111 Y"
b111 _"
b1100 j
b1100 +"
b1100 6"
b1100 8"
b1100 /#
b0 i
b0 *"
b0 4"
b0 :"
b0 2#
0&"
b11 T"
b11 ^"
b11 i"
b101 d
b101 E"
b101 Q"
b101 V"
b101 b"
b101 n"
b1000 ["
b101 \"
b1010000010010000 k
b1010000010010000 ,#
b1010000010010000 ;#
b0 v
b0 3#
b0 N#
b1100 w
b1100 0#
b1100 O#
b11000 {
b11000 E#
b11000 F#
b100 b
b100 D"
b100 R"
b100 e"
b100 |"
b0 #"
b0 W"
b0 o"
b0 !#
b0 (#
b10 %"
b10 X"
b10 j"
b10 "#
b10 '#
b101 S"
b101 ]"
b101 a"
b10100000100100 m
b10100000100100 0"
b10100000100100 B"
b10100000100100 -#
b10100000100100 R#
b10100000100100 Q#
b1100100001010000010010000 D#
b101 u
b101 ,"
b101 <"
b100 o
b100 ."
b100 @"
b100 z"
b100 *#
b100 J#
b11 q
b11 -"
b11 >"
b11 x"
b11 )#
b11 I#
b100100 ?
b100100 K
b100100 P
b100100 ""
b11000 z
b11000 B#
b11000 C#
b101001000010100000100000 )
b101001000010100000100000 /
b101001000010100000100000 0
b101001000010100000100000 ^
b101001000010100000100000 p"
b101 .
b1 D
b1 O
b1 \
b1 J"
b1 Z"
17
0B
b100 t
b100 7"
b100 ="
b100 N"
b100 d"
b10 n
b10 1"
b10 A"
b10 O"
b10 c"
b10 {"
b10 $#
b111 p
b111 2"
b111 ?"
b111 y"
b111 ##
b10000000100101 l
b10000000100101 /"
b10000000100101 C"
b10000000100101 P"
b10000000100101 `"
b101 g
b101 3"
b101 ;"
b101 M"
b101 l"
b11001000010100000100100 !"
b11001000010100000100100 r"
b1010000010100100 |
b1010000010100100 <#
b1010000010100100 A#
b10100 y
b10100 u"
b10100 :#
b11000 x
b11000 t"
b11000 >#
b11000 @#
b10100 (
b10100 9
b10100 }
b10100 ?#
b10100 H#
b101001 T
#75
0$
